0 	 -32.00000000 	 -16.00000000 
1 	 -32.00000000 	 -16.00000000 
2 	 -32.00000000 	 -16.00000000 
3 	 -32.00000000 	 -16.00000000 
4 	 -32.00000000 	 -16.00000000 
5 	 -32.00000000 	 -16.00000000 
6 	 -32.00000000 	 -16.00000000 
7 	 -32.00000000 	 -16.00000000 
8 	 -32.00000000 	 -16.00000000 
9 	 -32.00000000 	 -16.00000000 
