estacao, Lat, Lon
Capão Redondo, -23.666683, -46.781881
Carapicuiba, -23.530205, -46.835491
HC, -23.554109, -46.673392
USP, -23.566415, -46.737079
Conhonhas, -23.616138, -46.663277
Diadema, -23.688356, -46.613791
Guarulhos Paço, -23.430373, -46.264705
Guarulhos Pimenta, -23.440063, -46.409668
Ibirapuera, -23.585481, -46.660497
Interlagos, -23.682389, -46.676138
Itaim Paulista, -23.502018, -46.420303
Marginal Tietê, -23.518722, -46.743243
Mauá, -23.667552, -46.465443
Mooca, -23.550843, -46.598650
Nossa Senhora do ò, -23.480001, -46.692067
Osasco, -23.533585, -46.784033
Parelheiros, -23.776837, -46.697030
Pq Dom Pedro II, -23.545976, -46.628077
Pico do Jaraguá, -23.458763, -46.765883
Pinheiros, -23.562504, -46.701001
Sto André - Capuava, -23.639958, -46.491465
Sto Adnré - Paço, -23.656217, -46.534077
São Bernardo - Centro, -23.699338, -46.547073
São Bernardo - Pauliceia, -23.670839, -46.585261
Santana, -23.504924, -46.629016
Santo Amaro, -23.654991, -46.710690
São Caetano do Sul, -23.617609, -46.556891
Taboão da Serra, -23.609521, -46.755874








