date,category,title,amount
2015-06-16,Restaurante,Central Café - Metro Butantã,14
2015-06-16,Restaurante,Rei das Batidas,55.55
2015-06-16,Saúde,Pense Farma,17.99
2015-06-17,Serviços,Mercadopago Mlivre 1/6,6.52
2015-06-18,Supermercado,Central Café - Metro Butantã,12.5
2015-06-18,Supermercado,Doces Santa Rita,5.45
2015-06-18,Transporte,Auto Posto Tambau,2.5
2015-06-18,Casa,Pizarria San Remy,35.9
2015-06-18,Supermercado,Subway,24.75
2015-06-18,Restaurante,Lirio de Prata,6.5
2015-06-20,Serviços,Mercadopago Mlivre 1/5,6.81
2015-06-20,Casa,Materiais Bergamini,50.8
2015-06-23,Serviços,Ciclo Felline 1/3,48.34
2015-06-23,Supermercado,Minimercado Lj,8.94
2015-06-23,Supermercado,Central Café - Metro Butantã,12.5
2015-06-23,Casa,Jja Serralheria,10
2015-06-26,Supermercado,Varejao Bonfiglioli,48.75
2015-06-27,Supermercado,Tias do IF,5
2015-06-27,Restaurante,Lirio de Prata,35.05
2015-06-30,Supermercado,Fufu Lia,12.5
2015-06-30,Restaurante,Mc Donalds Av Fco Mto,9.5
2015-06-30,Restaurante,Clara Refeicoes,38
2015-07-01,Supermercado,Varejao Bonfiglioli,68.67
2015-07-02,Restaurante,Lanchonete da Fisica,13.4
2015-07-02,Restaurante,Madero Eldorado,48.4
2015-07-02,Restaurante,Ke Supimpa,7.5