date,category,title,amount
2015-07-04,Restaurante,Super Hot Dog,19.5
2015-07-07,Restaurante,Rpf Lanches,47
2015-07-07,Casa,Alimentos Andinos,23
2015-07-07,Restaurante,Jacqueline A Pereira,23
2015-07-07,Supermercado,Beijinho Doce,10
2015-07-07,Casa,Silvio S Bispo Santos,66.7
2015-07-08,Lazer,Cinemark Eldorado,15
2015-07-09,Supermercado,Extrinha,2.79
2015-07-09,Restaurante,Lirio de Prata,32.5
2015-07-10,Restaurante,Bolix,15
2015-07-10,Restaurante,Bolix,4
2015-07-10,Serviços,Recarga Tim,18
2015-07-10,Restaurante,Burger King Raposo Sho,21.5
2015-07-10,Restaurante,Bem Estar,9
2015-07-10,Restaurante,Burger King Raposo Sho,4
2015-07-14,Restaurante,Lirio de Prata,16.35
2015-07-14,Supermercado,Minimercado Lj,39.59
2015-07-15,Pagamento,Pagamento recebido,-605.82
2015-07-16,Serviços,Mercadopago Mlivre 2/6,6.52
2015-07-16,Serviços,Ciclo Felline 2/3,48.33
2015-07-16,Serviços,Mercadopago Mlivre 2/5,6.79
2015-07-17,Vestuário,Decathlon Raposo,28.15
2015-07-18,Restaurante,Maoz,48
2015-07-21,Lazer,Cinemark Eldorado,34
2015-07-22,Serviços,Netflix Com,22.9
2015-07-23,Restaurante,Kfc,32
2015-07-23,Educação,Saraiva Eldorado,37.8
2015-07-24,Restaurante,Imperio Dogs,31.4
2015-07-24,Serviços,Ciclo Felline 1/3,74.34
2015-07-25,Supermercado,Barraca do Juca,118.5
2015-07-25,Supermercado,Comercial Marukai,19.3
2015-07-28,Supermercado,Minimercado Lj,13.51
2015-07-28,Supermercado,Shop Ig Sup Irmaos Gon,4.19
2015-07-28,Saúde,Drogasil,9.83
2015-07-28,Vestuário,Jair Rossi Frota,18
2015-07-28,Restaurante,Subway Shop Tatuape,14
2015-07-28,Viagem,Solution Administracao,35
2015-07-28,Supermercado,Sg Supermercados,6.82
2015-07-28,Restaurante,Lirio de Prata,6
2015-07-29,Serviços,Casa das Biciclet 1/3,57.34
2015-07-29,Transporte,Auto Posto Douradao,11.02
2015-07-29,Restaurante,Dez Pasteis Ariquemes,4
2015-07-30,Serviços,Recarga Tim,20
2015-08-01,Vestuário,Inajara de Souza,12
2015-08-01,Restaurante,Anderson Alves Quadros,28
2015-08-02,Restaurante,Anderson Alves Quadros Ariquemes,16
2015-08-02,Outros,Mega Burguer Ariquemes,4.5
2015-08-02,Outros,Mega Burguer Ariquemes,24